17508
1908
248
391
260
203
457
75
173
211
90
229
134
135
88
174
93
178
93
170
72
480
170
705
514
111
377
112
157
143
477
74
124
3812
1953
25906
12451
21004
22759
125
17370
199
200
199
199
200
124
19059
199
199
200
152
125
133
968
33504
12164
187
381
1101
2185
7675
26204
11025
1473
2879
79
199
199
127
5168
11025
11025
11025
1473
933
8619
1473
2076
7475
4959
199
199
199
199
200
123
4480
76
106
184
11025
1203
2916
6906
1473
9551
1133
7308
11025
1473
9552
1473
8502
12047
12498
9552
11025
1028
234
92
95
140
98
110
94
681
179
1776
806
831
413
104
93
1142
211
2386
92
71
1250
1280
1365
8328
22050
33075
22996
10039
33075
12807
6659
2463
11025
11872
4787
240
5244
580
10281
11024
1382
9632
11024
2389
8636
24015
7231
5469
4671
44100
9077
1931
8418
2701
2771
5256
2501
6607
4057
94
10930
94
11025
11024
3258
396
414
118
6743
93
714
444
5035
4738
93
1607
677
8718
11025
1794
8259
960
10913
112
4307
3327
3329
16191
4382
1477
1781
9184
10899
125
1018
2878
18154
5664
6553
1542
2152
111
8008
90
966
18968
19518
2947
8522
16582
16496
3252
780
1531
8669
166
1206
10172
5947
568
90
1785
12392
2551
562
134
1338
235
733
141
1281
621
1192
50351
4212
925
342
116
72
861
2816
464
184
276
249
186
740
672
497
108
425
2202
4694
8308
35599
22013
445
193
4390
1515
5991
96271
46616
89805
17056
1352
184641
9430
2488
29316
8862
54976
10515
29946
10648
18441
11059
21626
42372
24964
77219
143639
22378
53966
27502
108256
5955
92596
19713
52617
12103
18400
1562
111
78152
172
174
174
317
101
8595
310
100
3714
7457
316
101
8231
10768
54860
5779
33916
88198
52068
35814
209901
58196
16008
181
181
181
291
22370
181
181
181
181
181
187
106
25525
181
182
181
1163
11989
10468
25858
2031
148
957
287
548
194
16575
33511
5031
101
183
90
188
2843
647
3291
336
1317
248
190
289
1323
1352
231
209
9649
311
22908
281
3173
4326
264
519
512
7008
1796
2219
1379
3212
137
