60
1
413
515
6394
195
0
1423
462
908
1
11
0
1417
0
125
1121
1055
0
0
214
17
0
17
0
0
0
0
1505
0
0
0
0
0
0
0
0
1
0
1121
465
0
0
0
0
1
0
2584
0
0
0
0
0
28
0
0
0
0
1244
182
22
22
0
203
240
271
0
0
52
0
0
0
40
0
0
121
0
0
0
17
257
37
0
0
1
10
1
0
0
0
1
10
2703
0
0
17
0
0
0
0
29
734
0
95
95
0
1
1
1
118
93
0
0
0
94
0
23
0
0
10
2
0
112
0
62
0
0
0
0
60
0
125
0
0
0
0
10
0
111
95
0
0
0
0
0
0
0
285
284
283
634
0
17
17
92
0
0
35
134
235
142
0
0
70
0
18
0
189
0
0
914
13
0
108
0
0
60
0
0
17
195
17
0
0
0
0
0
0
0
0
0
0
0
0
0
1
0
0
0
61
0
60
0
0
0
59
0
61
0
60
1
0
61
61
0
233
521
101
1
101
0
1
102
0
0
0
0
0
0
0
0
0
0
544
0
1199
544
0
1
0
0
160
340
195
0
0
711
3
29
13
65
731
1
704
12
0
352
0
285
0
0
1
2
0
12
379
