1167637660 60
1167655228 1
1167657137 413
1167657941 0
1167658201 255
1167658913 6394
1167665787 195
1167666687 0
1167667201 1423
1167669001 462
1167669940 908
1167674660 1
1167676614 11
1167702531 0
1167714982 1417
1167737403 0
1167760162 125
1167777657 1121
1167797837 1055
1167799860 0
1167833364 0
1167845528 214
1167846123 17
1167847241 0
1167849426 17
1167857118 0
1167883322 0
1167894347 0
1167895820 0
1167898699 1505
1167905372 0
1167916397 0
1167927422 0
1167938447 0
1167939920 0
1167940853 0
1167949472 0
1167950945 0
1167953021 1
1167960497 0
1167965456 1121
1167971057 465
1167982547 0
1167983750 0
1167986666 0
1167993572 0
1167995045 1
1168004597 0
1168005730 2584
1168015622 0
1168026647 0
1168028120 0
1168037672 0
1168039145 0
1168047647 28
1168059722 0
1168072220 0
1168081772 0
1168092797 0
1168093825 1244
1168095750 182
1168097708 22
1168098536 22
1168099389 0
1168099802 203
1168101147 240
1168103773 271
1168105294 0
1168106574 0
1168107939 52
1168116319 0
1168138369 0
1168171444 0
1168194440 40
1168204519 0
1168237594 0
1168250401 121
1168257181 0
1168259644 0
1168270669 0
1168282541 17
1168287345 257
1168292846 37
1168293463 0
1168303744 0
1168314768 1
1168316151 10
1168325793 1
1168336818 0
1168339207 0
1168347843 0
1168371858 1
1168379090 10
1168384569 2703
1168391943 0
1168436043 0
1168445120 17
1168447068 0
1168455486 0
1168458187 0
1168460958 0
1168466214 29
1168468744 734
1168476085 0
1168480142 95
1168491167 95
1168502287 0
1168513311 1
1168516570 1
1168516967 1
1168517382 118
1168524243 93
1168525050 0
1168525494 0
1168530529 0
1168535267 94
1168536968 0
1168537645 23
1168546386 0
1168557411 0
1168559205 10
1168567474 2
1168568436 0
1168579349 112
1168583768 0
1168587095 62
1168590486 0
1168606677 0
1168611059 0
1168612536 0
1168614317 60
1168623561 0
1168634460 125
1168635603 0
1168638481 0
1168656635 0
1168662299 0
1168668852 10
1168670404 0
1168672556 111
1168680675 95
1168681736 0
1168700704 0
1168720222 0
1168723169 0
1168731691 0
1168748273 0
1168764769 0
1168768021 285
1168769086 284
1168770901 283
1168779853 634
1168781693 0
1168791865 17
1168797829 17
1168798414 92
1168800291 0
1168812683 0
1168815234 35
1168815831 134
1168817303 235
1168818271 142
1168819694 0
1168820315 0
1168821507 70
1168871928 0
1168876140 18
1168877083 0
1168877425 189
1168878475 0
1168881291 0
1168881755 184
1168882215 454
1168883409 13
1168884094 0
1168884591 108
1168885124 0
1168887326 0
1168892020 60
1168900388 0
1168935987 0
1168958000 17
1168958462 195
1168963047 17
1168964579 0
1168970570 0
1169066841 0
1169113457 0
1169203262 0
1169220318 0
1169221670 0
1169406311 0
1169415741 0
1169418229 0
1169447545 0
1169456407 0
1169511383 0
1169521898 1
1169551845 0
1169562493 0
1169580934 0
1169591993 61
1169613680 0
1169656052 60
1169681076 0
1169758295 0
1169901934 0
1169924312 59
1169978337 0
1170005839 61
1170114156 0
1170120111 60
1170212767 1
1170232481 0
1170285098 61
1170297262 61
1170315723 0
1170317285 233
1170395670 521
1170396508 101
1170405204 1
1170405515 101
1170409330 0
1170416787 1
1170417104 102
1170425437 0
1170436205 0
1170491065 0
1170496844 0
1170530760 0
1170618958 0
1170671026 0
1170706840 0
1170916741 0
1170974937 0
1170990945 544
1170991780 0
1171014150 1199
1171040874 544
1171042581 0
1171054570 1
1171065039 0
1171090897 0
1171092928 160
1171094045 0
1171094332 53
1171094933 195
1171111703 0
1171145214 0
1171150245 711
1171153799 3
1171154449 29
1171157769 13
1171158118 65
1171159500 442
1171160231 0
1171161554 1
1171162907 704
1171173260 12
1171173583 0
1171196491 71
1171196843 0
1171200016 0
1171204342 7
1171204613 14
1171205146 0
1171205658 0
1171212666 1
1171214463 2
1171216684 0
1171218063 12
1171221287 379
