1128621350 17
1128641281 130
1128702415 49
1128719240 76
1128747957 67
1128794394 58
1128800774 68
1128801670 52
1128844147 48
1128854898 77
1128867768 83
1128868257 0
1128894889 74
1128925138 84
1128943059 4
1128944032 0
1128951960 346
1128954084 256
1128970689 123
1129097689 87
1129098173 0
1129150933 73
1129165840 115
1129166602 115
1129190071 68
1129204886 128
1129208158 242
1129215469 0
1129223123 0
1129223561 0
1129245099 71
1129246624 70
1129289540 120
1129289944 1
1129291932 59
1129295648 0
1129296117 0
1129297269 0
1129298378 0
1129299793 1
1129300645 0
1129301206 0
1129391777 243
1129416182 29
1129418599 60
1129500234 126
1129501439 126
1129504175 120
1129506597 135
1129546582 7
1129547377 124
1129621382 0
1129636975 43
1129642745 0
1129645694 110
1129733253 156
1129734479 0
1129738721 48
1129742931 0
1129749423 41
1129750329 55
1129775798 59
1129820518 116
1129895948 114
1129903329 117
1129920284 30
1129922423 83
1129922826 27
1129923281 21
1129925979 39
1129979315 140
1129979960 0
1129980996 61
1129989778 73
1130003461 51
1130052572 52
1130058537 71
1130074728 98
1130078142 240
1130088160 15
1130091155 54
1130092920 0
1130136967 12
1130140276 56
1130157405 119
1130195473 0
1130198136 0
1130212702 54
1130251358 234
1130255757 51
1130273429 55
1130376973 80
1130414707 118
1130425958 0
1130443754 120
1130479292 38
1130520274 0
1130529570 57
1130532078 37
1130541064 39
1130570462 11
1130570696 165
1130577910 55
1130611984 2205
1130630295 39
1130688028 117
1130695663 119
1130699911 52
1130703684 52
1130800559 86
1130810540 38
1130820210 37
1130833826 65
1130834927 38
1131021260 123
1131030042 240
1131035403 14
1131036185 56
1131036435 306
1131039622 28
1131041128 58
1131045342 0
1131045587 0
1131048768 0
1131049160 0
1131056109 148
1131056663 1
1131060630 0
1131077886 4
1131113126 0
1131128619 0
1131143766 56
1131146365 13
1131147667 0
1131148012 0
1131148621 0
1131148873 1
1131154140 53
1131206801 60
1131213796 0
1131280295 60
1131366692 233
1131407151 0
1131407633 162
1131408097 0
1131409491 0
1131426253 4
1131455728 97
1131475802 0
1131479752 1
1131483538 28
1131486120 35
1131491322 28
1131491644 0
1131491994 0
1131493052 0
1131499502 29
1131525611 4
1131678522 64
1131679236 0
1131680318 36
1131691007 32
1131739853 52
1131745871 0
1131766120 48
1131787805 55
1131927484 71
1131935482 62
1131945419 50
1131972434 47
1132017845 46
1132018679 32
1132020342 133
1132021522 28
1132035291 3
1132057073 0
1132066345 154
1132084779 0
1132085262 3
1132086027 4
1132086475 4
1132100880 1
1132110660 1
1132111089 189
1132122177 1
1132144099 8
1132169233 140
1132171445 1
1132171979 0
1132173418 30
1132181189 0
1132189350 9
1132191241 1
1132229209 0
1132230134 30
1132230742 31
1132232535 9
1132233158 10
1132233542 27
1132234404 216
1132234880 98
1132236772 257
1132238841 2
1132243578 0
1132250131 62
1132270361 38
1132270639 197
1132293338 7
1132315933 0
1132317364 139
1132320897 125
1132341192 117
1132448130 76
1132448701 0
1132454976 94
1132477956 119
1132486751 94
1132551086 100
1132553873 88
1132575023 0
1132575779 20
1132583704 320
1132584619 27
1132586595 0
1132595918 0
1132600018 383
1132604435 21
1132609175 236
1132613184 101
1132613735 331
1132617896 30
1132620101 0
1132683823 184
1132689283 7
1132694793 1
1132699963 18
1132705067 1
1132706898 0
1132707401 1
1132712736 120
1132716690 1
1132717787 1
1132720544 1
1132721035 1
1132722437 1
1132783619 0
1132789958 4
1132791510 1
1132799512 1
1132824816 14
1132841269 203
1132853786 140
1132898752 173
1132912056 178
1132940616 180
1132969418 1
1133009333 242
1133044839 247
1133051990 223
1133059825 200
1133062682 207
1133066060 205
1133135170 195
1133150615 173
1133199994 78
1133200780 143
1133204061 53
1133222428 0
1133224426 0
1133280950 0
1133287401 128
1133287800 2
1133300161 53
1133304729 32
1133306715 30
1133314430 249
1133317555 0
1133355994 0
1133358890 1
1133363216 15
1133397255 1
1133409270 544
1133442712 0
1133452594 1
1133457431 1
1133457746 13
1133458349 20
1133462338 52
1133494218 126
1133516998 125
1133538488 78
1133538768 22
1133555554 188
1133557211 0
1133574290 40
1133614508 1
1133615339 7
1133622072 77
1133625430 122
1133645260 21
1133645526 18
1133650315 21
1133663792 33
1133664299 33
1133715924 29
1133721067 512
1133722855 0
1133723149 590
1133724965 62
1133725426 0
1133725866 29
1133726251 62
1133726660 80
1133727081 72
1133809156 0
1133817781 19
1133835023 52
1133843430 20
1133846535 29
1133846826 28
1133847122 28
1133847417 29
1133873392 0
1133875981 28
1133876206 144
1133877021 16
1133919741 29
1133920033 30
1133922141 81
1133926491 1
1133929445 39
1133960072 0
1133971734 176
1134022709 1
1134026119 3
1134058395 0
1134060589 72
1134080841 14
1134093484 4
1134109038 189
1134116422 142
1134150604 98
1134158825 2061
1134161326 73
1134161718 1
1134196351 46
1134357547 183
1134403732 215
1134451096 202
1134496338 190
1134573342 203
1134599370 295
1134630934 231
1134724822 177
1134773043 19
1134773736 241
1134840747 2
1134849825 0
1134895661 5
1134896558 8
1134931310 18
1134937859 196
1135006636 25
1135008412 25
1135102139 2
1135109019 25
1135140398 1
1135177864 0
1135178837 0
1135179082 1
1135179320 1
1135179530 1
1135179873 1
1135180434 1
1135182976 1
1135189322 1
1135192677 1
1135257926 54
1135277730 1
1135278514 1
1135279517 1
1135402990 0
1135434873 22
1135456892 27
1135471551 26
1135517266 27
1135551152 4
1135571204 18
1135577215 158
1135579620 19
1135602837 21
1135619775 115
1135624543 67
1135630198 90
1135649834 35
1135780093 22
1135782762 52
1135791839 1
1135839338 2
1135957314 101
1136133055 4
1136287486 40
1136318181 17
1136322566 110
1136390405 0
